{
  "id" : "8c5db8b0-2db4-4ad7-a99f-38c9b00da3f8",
  "request" : {
    "urlPathPattern" : "/abu/accounts/([a-z]*)",
    "method" : "POST",
    "headers" : {
      "Content-Type" : {
        "equalTo" : "application/json"
      }
    },
    "bodyPatterns" : [ {
      "matchesJsonPath" : "$.account[?(@.accountNumber =~ /[0-9].*[2]$/)]"
    } ]
  },
  "response" : {
    "status" : 200,
    "statusMessage" : "OK",
    "body" : "{\n\t\"responseIndicator\": \"VALID\"\n}"
  },
  "uuid" : "8c5db8b0-2db4-4ad7-a99f-38c9b00da3f8",
  "persistent" : true,
  "insertionIndex" : 2
}